%YAML 1.1
%TAG !u! tag:unity3d.com,2011:
--- !u!114 &11400000
MonoBehaviour:
  m_ObjectHideFlags: 0
  m_CorrespondingSourceObject: {fileID: 0}
  m_PrefabInstance: {fileID: 0}
  m_PrefabAsset: {fileID: 0}
  m_GameObject: {fileID: 0}
  m_Enabled: 1
  m_EditorHideFlags: 0
  m_Script: {fileID: 11500000, guid: fba85c93c97eafe4abadfbd8f9624e1f, type: 3}
  m_Name: kepompong berubah dari
  m_EditorClassIdentifier: 
  soal: Kepompong adalah perubahan ulat menjadi?
  jawaban:
  - _quText: Kupu-kupu
    _quTrue: 1
  - _quText: Kumbang
    _quTrue: 0
  - _quText: Bunga
    _quTrue: 0
  - _quText: Telur
    _quTrue: 0
  _useTimer: 1
  _timer: 12
  _answerType: 1
  _addScore: 10
